Hundley et al temperature analysis
…
falseday<-daily %>%
  filter(site=='False Caye')

silkday<-daily %>%
  filter(site=='Silk Caye')

prepare satellite data

make date column a date object

false_MURSST

# A tibble: 7,724 × 9
    ...1 time                latitude longitude analysed_sst analysis_error
   <dbl> <dttm>                 <dbl>     <dbl>        <dbl>          <dbl>
 1     1 2002-09-02 09:00:00     16.4     -88.4         29.4           0.39
 2     2 2002-09-03 09:00:00     16.4     -88.4         29.4           0.39
 3     3 2002-09-04 09:00:00     16.4     -88.4         29.4           0.39
 4     4 2002-09-05 09:00:00     16.4     -88.4         29.8           0.4 
 5     5 2002-09-06 09:00:00     16.4     -88.4         29.9           0.39
 6     6 2002-09-07 09:00:00     16.4     -88.4         30.1           0.39
 7     7 2002-09-08 09:00:00     16.4     -88.4         30.4           0.37
 8     8 2002-09-09 09:00:00     16.4     -88.4         30.5           0.36
 9     9 2002-09-10 09:00:00     16.4     -88.4         30.4           0.36
10    10 2002-09-11 09:00:00     16.4     -88.4         30.2           0.37
# ℹ 7,714 more rows
# ℹ 3 more variables: mask <dbl>, sea_ice_fraction <lgl>, sst_anomaly <dbl>

false_MURSST<- false_MURSST %>%
  select(-c(...1,sea_ice_fraction, mask)) %>%
  mutate(date=ymd_hms(time))

silk_MURSST<- silk_murSST %>%
  select(-c(...1,sea_ice_fraction, mask)) %>%
  mutate(date=ymd_hms(time))
silk_MURSST

# A tibble: 7,724 × 7
   time                latitude longitude analysed_sst analysis_error
   <dttm>                 <dbl>     <dbl>        <dbl>          <dbl>
 1 2002-09-02 09:00:00     16.4     -88.1         29.4           0.38
 2 2002-09-03 09:00:00     16.4     -88.1         29.5           0.37
 3 2002-09-04 09:00:00     16.4     -88.1         29.6           0.37
 4 2002-09-05 09:00:00     16.4     -88.1         29.8           0.38
 5 2002-09-06 09:00:00     16.4     -88.1         29.8           0.37
 6 2002-09-07 09:00:00     16.4     -88.1         29.9           0.37
 7 2002-09-08 09:00:00     16.4     -88.1         30.0           0.36
 8 2002-09-09 09:00:00     16.4     -88.1         29.8           0.36
 9 2002-09-10 09:00:00     16.4     -88.1         29.5           0.36
10 2002-09-11 09:00:00     16.4     -88.1         29.7           0.38
# ℹ 7,714 more rows
# ℹ 2 more variables: sst_anomaly <dbl>, date <dttm>
…
Difference between sat and in-situ daily values

widetemp<- alltemp %>%
  pivot_wider(names_from = measurement, values_from = temp) %>%
  drop_na(c(`Satellite JPL MUR`, `in-situ`)) %>%
  mutate(diff= `in-situ`-`Satellite JPL MUR`)
widetemp

# A tibble: 5,115 × 5
   date       site       `Satellite JPL MUR` `in-situ`    diff
   <date>     <chr>                    <dbl>     <dbl>   <dbl>
 1 2018-12-05 False Caye                28.2      28.8  0.622 
 2 2018-12-06 False Caye                28.5      28.6  0.105 
 3 2018-12-07 False Caye                28.4      28.5  0.106 
 4 2018-12-08 False Caye                28.1      28.5  0.380 
 5 2018-12-09 False Caye                28.0      28.6  0.535 
 6 2018-12-10 False Caye                28.0      28.3  0.357 
 7 2018-12-11 False Caye                27.9      27.6 -0.268 
 8 2018-12-12 False Caye                27.8      27.1 -0.636 
 9 2018-12-13 False Caye                27.4      27.5  0.0770
10 2018-12-14 False Caye                27.5      27.8  0.364 
# ℹ 5,105 more rows
…
## observation period, hotspot & dhw calc
dhw <- tempdat %>%
  #tidyr::gather("site", "sst", 2:all_of(g_num)) %>%
  dplyr::filter(date >= "2017-12-01") %>% #define present
  dplyr::mutate(month = month(date)) %>%
  dplyr::full_join(mmtdata, by = "site") %>%
  dplyr::mutate(hspt = Temp_C - mmmt,
                hsptm = ifelse(hspt >= 1, hspt, 0),
                dhw = dhw_calc_12(hsptm)*(1/7)) %>% #hotspot based on 1 degree
  dplyr::select(-month, -hsptm)

dhw

# A tibble: 100,338 × 11
   date                Temp_C  year   day  hour   min   sec site      mmmt  hspt
   <dttm>               <dbl> <dbl> <dbl> <dbl> <dbl> <dbl> <chr>    <dbl> <dbl>
 1 2018-12-05 05:00:00   28.5  2018     5     4    59    59 False C…  30.4 -1.84
 2 2018-12-05 06:00:00   28.5  2018     5     6     0     0 False C…  30.4 -1.89
 3 2018-12-05 07:00:00   28.5  2018     5     7     0     0 False C…  30.4 -1.82
 4 2018-12-05 08:00:00   28.5  2018     5     7    59    59 False C…  30.4 -1.87
 5 2018-12-05 09:00:00   28.5  2018     5     9     0     0 False C…  30.4 -1.82
 6 2018-12-05 10:00:00   28.5  2018     5    10     0     0 False C…  30.4 -1.84
 7 2018-12-05 11:00:00   28.5  2018     5    10    59    59 False C…  30.4 -1.84
 8 2018-12-05 12:00:00   28.5  2018     5    12     0     0 False C…  30.4 -1.87
 9 2018-12-05 13:00:00   28.4  2018     5    13     0     0 False C…  30.4 -1.92
10 2018-12-05 14:00:00   28.6  2018     5    13    59    59 False C…  30.4 -1.74
# ℹ 100,328 more rows
# ℹ 1 more variable: dhw <dbl>
…
false_clim<- false_MURSST[-1,] %>%
  mutate(date=as.Date(date)) %>%
  mutate(temp=as.numeric(analysed_sst)) %>%
  select(date, temp)
false_clim

# A tibble: 7,723 × 2
   date        temp
   <date>     <dbl>
 1 2002-09-03  29.4
 2 2002-09-04  29.4
 3 2002-09-05  29.8
 4 2002-09-06  29.9
 5 2002-09-07  30.1
 6 2002-09-08  30.4
 7 2002-09-09  30.5
 8 2002-09-10  30.4
 9 2002-09-11  30.2
10 2002-09-12  29.9
# ℹ 7,713 more rows

silk_clim<-silk_MURSST %>%
  mutate(date=as.Date(date)) %>%
  mutate(temp=analysed_sst) %>%
  select(date, temp)
silk_clim

# A tibble: 7,724 × 2
   date        temp
   <date>     <dbl>
 1 2002-09-02  29.4
 2 2002-09-03  29.5
 3 2002-09-04  29.6
 4 2002-09-05  29.8
 5 2002-09-06  29.8
 6 2002-09-07  29.9
 7 2002-09-08  30.0
 8 2002-09-09  29.8
 9 2002-09-10  29.5
10 2002-09-11  29.7
# ℹ 7,714 more rows
…
false_isclim<- falseday[,-1] %>%
  mutate(date=as.Date(day)) %>%
  mutate(temp=meandailytemp) %>%
  select(date, temp)
false_isclim

# A tibble: 1,942 × 2
   date        temp
   <date>     <dbl>
 1 2018-12-05  28.8
 2 2018-12-06  28.6
 3 2018-12-07  28.5
 4 2018-12-08  28.5
 5 2018-12-09  28.6
 6 2018-12-10  28.3
 7 2018-12-11  27.6
 8 2018-12-12  27.1
 9 2018-12-13  27.5
10 2018-12-14  27.8
# ℹ 1,932 more rows

silk_isclim<- silkday[,-1] %>%
  mutate(date=as.Date(day)) %>%
  mutate(temp=meandailytemp) %>%
  select(date, temp)
silk_isclim

# A tibble: 3,203 × 2
   date        temp
   <date>     <dbl>
 1 2015-04-18  29.3
 2 2015-04-19  29.0
 3 2015-04-20  29.1
 4 2015-04-21  29.3
 5 2015-04-22  29.5
 6 2015-04-23  29.5
 7 2015-04-24  29.4
 8 2015-04-25  29.4
 9 2015-04-26  29.5
10 2015-04-27  29.6
# ℹ 3,193 more rows

Build climatolgies

With sat data (2002-present) the climatology is 20+ years!  -In-situ data are limited to only last 5 years (more for Silk)

#use the ts2clm function

tssilk<-ts2clm(silk_clim, x=date, y=temp, climatologyPeriod = c("2002-09-02", "2024-05-18"),var=TRUE)
tssilk

# A tibble: 7,930 × 6
     doy date        temp  seas thresh   var
   <int> <date>     <dbl> <dbl>  <dbl> <dbl>
 1   246 2002-09-02  29.4  29.8   30.4 0.475
 2   247 2002-09-03  29.5  29.8   30.4 0.476
 3   248 2002-09-04  29.6  29.9   30.4 0.477
 4   249 2002-09-05  29.8  29.9   30.5 0.478
 5   250 2002-09-06  29.8  29.9   30.5 0.480
 6   251 2002-09-07  29.9  29.9   30.5 0.482
 7   252 2002-09-08  30.0  29.9   30.5 0.485
 8   253 2002-09-09  29.8  29.9   30.5 0.487
 9   254 2002-09-10  29.5  29.9   30.5 0.488
10   255 2002-09-11  29.7  29.9   30.5 0.490
# ℹ 7,920 more rows

tsfalse<-ts2clm(false_clim, x=date, y=temp, climatologyPeriod = c("2018-12-05", "2024-05-18"),var=TRUE)
tsfalse

# A tibble: 7,929 × 6
     doy date        temp  seas thresh   var
   <int> <date>     <dbl> <dbl>  <dbl> <dbl>
 1   247 2002-09-03  29.4  30.2   30.6 0.348
 2   248 2002-09-04  29.4  30.2   30.6 0.346
 3   249 2002-09-05  29.8  30.2   30.6 0.345
 4   250 2002-09-06  29.9  30.2   30.6 0.346
 5   251 2002-09-07  30.1  30.2   30.6 0.347
 6   252 2002-09-08  30.4  30.2   30.6 0.350
 7   253 2002-09-09  30.5  30.2   30.6 0.354
 8   254 2002-09-10  30.4  30.2   30.6 0.358
 9   255 2002-09-11  30.2  30.2   30.6 0.362
10   256 2002-09-12  29.9  30.2   30.6 0.367
# ℹ 7,919 more rows
…
detect MHW using detect_event

Note: It is preferred to use 30 year climatologies for this, we only have data form 2002-present!

#S = FALSE tells the function we are in the northern hemisphere

silk_event<-heatwaveR::detect_event(tssilk, x=date, y=temp, S=FALSE)
silk_event

$climatology
# A tibble: 7,930 × 10
     doy date        temp  seas thresh   var threshCriterion durationCriterion
   <int> <date>     <dbl> <dbl>  <dbl> <dbl> <lgl>           <lgl>            
 1   246 2002-09-02  29.4  29.8   30.4 0.475 FALSE           FALSE            
 2   247 2002-09-03  29.5  29.8   30.4 0.476 FALSE           FALSE            
 3   248 2002-09-04  29.6  29.9   30.4 0.477 FALSE           FALSE            
 4   249 2002-09-05  29.8  29.9   30.5 0.478 FALSE           FALSE            
 5   250 2002-09-06  29.8  29.9   30.5 0.480 FALSE           FALSE            
 6   251 2002-09-07  29.9  29.9   30.5 0.482 FALSE           FALSE            
 7   252 2002-09-08  30.0  29.9   30.5 0.485 FALSE           FALSE            
 8   253 2002-09-09  29.8  29.9   30.5 0.487 FALSE           FALSE            
 9   254 2002-09-10  29.5  29.9   30.5 0.488 FALSE           FALSE            
10   255 2002-09-11  29.7  29.9   30.5 0.490 FALSE           FALSE            
# ℹ 7,920 more rows
# ℹ 2 more variables: event <lgl>, event_no <int>

$event
# A tibble: 64 × 22
   event_no index_start index_peak index_end duration date_start date_peak 
      <int>       <int>      <int>     <int>    <dbl> <date>     <date>    
 1        1        1012       1014      1017        6 2005-06-09 2005-06-11
 2        2        1040       1042      1055       16 2005-07-07 2005-07-09
 3        3        1091       1096      1097        7 2005-08-27 2005-09-01
 4        4        1604       1606      1608        5 2007-01-22 2007-01-24
 5        5        1613       1617      1620        8 2007-01-31 2007-02-04
 6        6        1624       1627      1630        7 2007-02-11 2007-02-14
 7        7        1642       1644      1647        6 2007-03-01 2007-03-03
 8        8        1685       1687      1689        5 2007-04-13 2007-04-15
 9        9        2000       2004      2004        5 2008-02-22 2008-02-26
10       10        2199       2201      2204        6 2008-09-08 2008-09-10
# ℹ 54 more rows
# ℹ 15 more variables: date_end <date>, intensity_mean <dbl>,
#   intensity_max <dbl>, intensity_var <dbl>, intensity_cumulative <dbl>,
#   intensity_mean_relThresh <dbl>, intensity_max_relThresh <dbl>,
#   intensity_var_relThresh <dbl>, intensity_cumulative_relThresh <dbl>,
#   intensity_mean_abs <dbl>, intensity_max_abs <dbl>, intensity_var_abs <dbl>,
#   intensity_cumulative_abs <dbl>, rate_onset <dbl>, rate_decline <dbl>

false_event<-heatwaveR::detect_event(tsfalse, x=date, y=temp, S=FALSE)
false_event

$climatology
# A tibble: 7,929 × 10
     doy date        temp  seas thresh   var threshCriterion durationCriterion
   <int> <date>     <dbl> <dbl>  <dbl> <dbl> <lgl>           <lgl>            
 1   247 2002-09-03  29.4  30.2   30.6 0.348 FALSE           FALSE            
 2   248 2002-09-04  29.4  30.2   30.6 0.346 FALSE           FALSE            
 3   249 2002-09-05  29.8  30.2   30.6 0.345 FALSE           FALSE            
 4   250 2002-09-06  29.9  30.2   30.6 0.346 FALSE           FALSE            
 5   251 2002-09-07  30.1  30.2   30.6 0.347 FALSE           FALSE            
 6   252 2002-09-08  30.4  30.2   30.6 0.350 FALSE           FALSE            
 7   253 2002-09-09  30.5  30.2   30.6 0.354 FALSE           FALSE            
 8   254 2002-09-10  30.4  30.2   30.6 0.358 FALSE           FALSE            
 9   255 2002-09-11  30.2  30.2   30.6 0.362 FALSE           FALSE            
10   256 2002-09-12  29.9  30.2   30.6 0.367 FALSE           FALSE            
# ℹ 7,919 more rows
# ℹ 2 more variables: event <lgl>, event_no <int>

$event
# A tibble: 39 × 22
   event_no index_start index_peak index_end duration date_start date_peak 
      <int>       <int>      <int>     <int>    <dbl> <date>     <date>    
 1        1        1011       1013      1015        5 2005-06-09 2005-06-11
 2        2        1039       1043      1055       17 2005-07-07 2005-07-11
 3        3        1091       1095      1096        6 2005-08-28 2005-09-01
 4        4        1613       1616      1617        5 2007-02-01 2007-02-04
 5        5        2199       2202      2205        7 2008-09-09 2008-09-12
 6        6        2491       2492      2495        5 2009-06-28 2009-06-29
 7        7        2567       2569      2573        7 2009-09-12 2009-09-14
 8        8        2655       2658      2662        8 2009-12-09 2009-12-12
 9        9        2796       2796      2807       12 2010-04-29 2010-04-29
10       10        2857       2858      2861        5 2010-06-29 2010-06-30
# ℹ 29 more rows
# ℹ 15 more variables: date_end <date>, intensity_mean <dbl>,
#   intensity_max <dbl>, intensity_var <dbl>, intensity_cumulative <dbl>,
#   intensity_mean_relThresh <dbl>, intensity_max_relThresh <dbl>,
#   intensity_var_relThresh <dbl>, intensity_cumulative_relThresh <dbl>,
#   intensity_mean_abs <dbl>, intensity_max_abs <dbl>, intensity_var_abs <dbl>,
#   intensity_cumulative_abs <dbl>, rate_onset <dbl>, rate_decline <dbl>
…
-start, peak, and end date of events -intensity mean, max, and var (this is standard deviation): intensity is temp-seas. -intensity_cumulative = deg C * days

-Many more vars defined here

-category (I, II, III, IV– associated with moderate, strong, severe, extreme) and associated vars including % of time spent at each category level

calculate exceedance of MMMT from previous calculations (30.33 at Silk, 30.36 at False)

Exceedance using SST

silk_exc<- exceedance(silk_clim, x=date, y=temp,threshold=30.33)
silk_exc

$threshold
# A tibble: 7,930 × 7
   date        temp thresh threshCriterion durationCriterion exceedance
   <date>     <dbl>  <dbl> <lgl>           <lgl>             <lgl>     
 1 2002-09-02  29.4   30.3 FALSE           FALSE             FALSE     
 2 2002-09-03  29.5   30.3 FALSE           FALSE             FALSE     
 3 2002-09-04  29.6   30.3 FALSE           FALSE             FALSE     
 4 2002-09-05  29.8   30.3 FALSE           FALSE             FALSE     
 5 2002-09-06  29.8   30.3 FALSE           FALSE             FALSE     
 6 2002-09-07  29.9   30.3 FALSE           FALSE             FALSE     
 7 2002-09-08  30.0   30.3 FALSE           FALSE             FALSE     
 8 2002-09-09  29.8   30.3 FALSE           FALSE             FALSE     
 9 2002-09-10  29.5   30.3 FALSE           FALSE             FALSE     
10 2002-09-11  29.7   30.3 FALSE           FALSE             FALSE     
# ℹ 7,920 more rows
# ℹ 1 more variable: exceedance_no <int>
…
false_exc<-exceedance(false_clim, x=date,y=temp,threshold=30.36)
false_exc

$threshold
# A tibble: 7,929 × 7
   date        temp thresh threshCriterion durationCriterion exceedance
   <date>     <dbl>  <dbl> <lgl>           <lgl>             <lgl>     
 1 2002-09-03  29.4   30.4 FALSE           FALSE             FALSE     
 2 2002-09-04  29.4   30.4 FALSE           FALSE             FALSE     
 3 2002-09-05  29.8   30.4 FALSE           FALSE             FALSE     
 4 2002-09-06  29.9   30.4 FALSE           FALSE             FALSE     
 5 2002-09-07  30.1   30.4 FALSE           FALSE             FALSE     
 6 2002-09-08  30.4   30.4 TRUE            FALSE             FALSE     
 7 2002-09-09  30.5   30.4 TRUE            FALSE             FALSE     
 8 2002-09-10  30.4   30.4 TRUE            FALSE             FALSE     
 9 2002-09-11  30.2   30.4 FALSE           FALSE             FALSE     
10 2002-09-12  29.9   30.4 FALSE           FALSE             FALSE     
# ℹ 7,919 more rows
# ℹ 1 more variable: exceedance_no <int>

$exceedance
# A tibble: 33 × 18
   exceedance_no index_start index_peak index_end duration date_start date_peak 
           <dbl>       <dbl>      <dbl>     <dbl>    <dbl> <date>     <date>    
 1             1        1011       1013      1015        5 2005-06-09 2005-06-11
 2             2        1040       1043      1045        6 2005-07-08 2005-07-11
 3             3        1089       1096      1100       12 2005-08-26 2005-09-02
 4             4        2199       2202      2205        7 2008-09-09 2008-09-12
 5             5        2563       2569      2574       12 2009-09-08 2009-09-14
 6             6        2832       2833      2836        5 2010-06-04 2010-06-05
 7             7        2857       2858      2861        5 2010-06-29 2010-06-30
 8             8        2925       2928      2931        7 2010-09-05 2010-09-08
 9             9        2936       2938      2943        8 2010-09-16 2010-09-18
10            10        3265       3268      3270        6 2011-08-11 2011-08-14
# ℹ 23 more rows
# ℹ 11 more variables: date_end <date>, intensity_mean <dbl>,
#   intensity_max <dbl>, intensity_var <dbl>, intensity_cumulative <dbl>,
#   intensity_mean_abs <dbl>, intensity_max_abs <dbl>, intensity_var_abs <dbl>,
#   intensity_cum_abs <dbl>, rate_onset <dbl>, rate_decline <dbl>
…
Exceedance using in-situ data

silk_is_exc<- exceedance(silk_isclim, x=date, y=temp,threshold=30.33)
silk_is_exc

$threshold
# A tibble: 3,342 × 7
   date        temp thresh threshCriterion durationCriterion exceedance
   <date>     <dbl>  <dbl> <lgl>           <lgl>             <lgl>     
 1 2015-04-18  29.3   30.3 FALSE           FALSE             FALSE     
 2 2015-04-19  29.0   30.3 FALSE           FALSE             FALSE     
 3 2015-04-20  29.1   30.3 FALSE           FALSE             FALSE     
 4 2015-04-21  29.3   30.3 FALSE           FALSE             FALSE     
 5 2015-04-22  29.5   30.3 FALSE           FALSE             FALSE     
 6 2015-04-23  29.5   30.3 FALSE           FALSE             FALSE     
 7 2015-04-24  29.4   30.3 FALSE           FALSE             FALSE     
 8 2015-04-25  29.4   30.3 FALSE           FALSE             FALSE     
 9 2015-04-26  29.5   30.3 FALSE           FALSE             FALSE     
10 2015-04-27  29.6   30.3 FALSE           FALSE             FALSE     
# ℹ 3,332 more rows
# ℹ 1 more variable: exceedance_no <int>

$exceedance
# A tibble: 23 × 18
   exceedance_no index_start index_peak index_end duration date_start date_peak 
           <dbl>       <dbl>      <dbl>     <dbl>    <dbl> <date>     <date>    
 1             1         130        132       141       12 2015-08-25 2015-08-27
 2             2         149        155       156        8 2015-09-13 2015-09-19
 3             3         167        175       179       13 2015-10-01 2015-10-09
 4             4         194        198       199        6 2015-10-28 2015-11-01
 5             5         410        420       421       12 2016-05-31 2016-06-10
 6             6         501        505       507        7 2016-08-30 2016-09-03
 7             7         513        515       519        7 2016-09-11 2016-09-13
 8             8         537        540       542        6 2016-10-05 2016-10-08
 9             9         860        866       869       10 2017-08-24 2017-08-30
10            10         873        896       900       28 2017-09-06 2017-09-29
# ℹ 13 more rows
# ℹ 11 more variables: date_end <date>, intensity_mean <dbl>,
#   intensity_max <dbl>, intensity_var <dbl>, intensity_cumulative <dbl>,
#   intensity_mean_abs <dbl>, intensity_max_abs <dbl>, intensity_var_abs <dbl>,
#   intensity_cum_abs <dbl>, rate_onset <dbl>, rate_decline <dbl>
…
